MaskId,MatchPatternType,MatchPattern,ReplaceString,Description
0,raw,Content-Length,999,example of mask for a header
1,regex,"(?:[1-9]\d{3}-(?:(?:0[1-9]|1[0-2])-(?:0[1-9]|1\d|2[0-8])|(?:0[13-9]|1[0-2])-(?:29|30)|(?:0[13578]|1[02])-31)|(?:[1-9]\d(?:0[48]|[2468][048]|[13579][26])|(?:[2468][048]|[13579][26])00)-02-29)T(?:[01]\d|2[0-3]):[0-5]\d:[0-5]\d(?:\.\d{1,9})?(?:Z|[+-][01]\d:[0-5]\d)",2001-01-01T00:00:00Z, matches golang time.Now() + 2000 years
2,regex,"[{]?[0-9a-fA-F]{8}-([0-9a-fA-F]{4}-){3}[0-9a-fA-F]{12}[}]?",123e4567-e89b-12d3-a456-9AC7CBDCEE52, 36 digit GUID
3,raw,Date,,
4,json,$.UserId,9999,masking user ids so they appear similar
5,json,$.UserSecret,"""**********""", masking user secret so it doesn't show!
6,xml,root/UserData/UserId,9999,masking xml user id
7,xml,root/UserData/Secret,"**********", masking user secret so it doesn't show!
8,xml,root/TimeStamp,"2001-01-01T00:00:00Z", masking timestamp in a different way